{
  "weeks": [
    {
      "prioritet": 1,
      "days": [
        {
          "prioritet": 1,
          "character": "assets/imgs/person.png",
          "background": "assets/imgs/bg.jpg",
          "introductionText": "Some text question",
          "answers": [
            {
              "text": "some question text",
              "value": {"life": 13, "education": -7},
              "conclusionText": "Sooome text"
            },
            {
              "text": "some2 question2 text2",
              "value": {"life": 12,"education": -1},
              "conclusionText": "Sooome2 text2"
            }
          ]
        },
        {
          "prioritet": 2,
          "character": "assets/imgs/person.png",
          "background": "assets/imgs/bg.jpg",
          "introductionText": "22222Some text question",
          "answers": [
            {
              "text": "222some question text",
              "value": {"life": -33, "education": -7},
              "conclusionText": "Sooome222 text"
            },
            {
              "text": "2222some2 question2 text2",
              "value": {"life": 12,"education": -1},
              "conclusionText": "Sooome22233 text2"
            }
          ]
        }
      ]
    },
    {
      "prioritet": 2,
      "days": [
        {
          "prioritet": 1,
          "character": "assets/imgs/person.png",
          "background": "assets/imgs/bg.jpg",
          "introductionText": "Some text question",
          "answers": [
            {
              "text": "some question text",
              "value": {"life": 13, "education": -7},
              "conclusionText": "Sooome text"
            },
            {
              "text": "some2 question2 text2",
              "value": {"life": 12,"education": -1},
              "conclusionText": "Sooome2 text2"
            }
          ]
        },
        {
          "prioritet": 2,
          "character": "assets/imgs/person.png",
          "background": "assets/imgs/bg.jpg",
          "introductionText": "22222Some text question",
          "answers": [
            {
              "text": "222some question text",
              "value": {"life": 13, "education": -7},
              "conclusionText": "Sooome222 text"
            },
            {
              "text": "2222some2 question2 text2",
              "value": {"life": 12,"education": -1},
              "conclusionText": "Sooome22233 text2"
            }
          ]
        }
      ]
    }
  ]
}
